<?xml version="1.0" encoding="UTF-8"?>
<svg version="1.1" viewBox="0 0 156 156" xmlns="http://www.w3.org/2000/svg">
 <defs>
  <linearGradient id="linear-gradient" x1=".769" x2=".16" y1=".083" y2=".859">
   <stop stop-color="#0fd40a" offset="0"/>
   <stop stop-color="#055702" offset="1"/>
  </linearGradient>
 </defs>
 <g transform="translate(-609 -369)">
  <g id="Percentile_circle_Left" transform="translate(-14)" data-name="Percentile circle Left">
   <path transform="translate(623 369)" d="M78,0A78,78,0,1,1,0,78,78,78,0,0,1,78,0Z" fill="url(#linear-gradient)" data-name="Path 1500"/>
   <path transform="translate(637 383)" d="M64,0A64,64,0,1,1,0,64,64,64,0,0,1,64,0Z" fill="#fff" data-name="Path 1501"/>
  </g>
  <g id="_54_" transform="translate(605 410.26)" aria-label="54%">
   <path d="m42.835 5.4277h31.775v9.3965h-21.582v7.6699q1.4609-0.39844 2.9219-0.59766 1.4941-0.23242 3.0879-0.23242 9.0645 0 14.111 4.5488 5.0469 4.5156 5.0469 12.617 0 8.0352-5.5117 12.584-5.4785 4.5488-15.24 4.5488-4.2168 0-8.3672-0.83008-4.1172-0.79688-8.2012-2.457v-10.061q4.0508 2.3242 7.6699 3.4863 3.6523 1.1621 6.873 1.1621 4.6484 0 7.3047-2.2578 2.6895-2.291 2.6895-6.1758 0-3.918-2.6895-6.1758-2.6562-2.2578-7.3047-2.2578-2.7559 0-5.877 0.73047-3.1211 0.69727-6.707 2.1914z" style=""/>
   <path d="m107.95 15.953-14.012 20.752h14.012zm-2.125-10.525h14.211v31.277h7.0723v9.2637h-7.0723v9.0312h-12.086v-9.0312h-21.98v-10.957z" style=""/>
   <path d="m86.379 70.188q-0.55469 0-0.85938 0.48438-0.30469 0.47656-0.30469 1.3672 0 0.89844 0.29688 1.3828 0.30469 0.47656 0.86719 0.47656t0.85938-0.47656q0.29688-0.48438 0.29688-1.3828 0-0.89062-0.30469-1.3672-0.29688-0.48438-0.85156-0.48438zm0-1.3125q1.4531 0 2.2891 0.84375 0.83594 0.84375 0.83594 2.3203 0 1.4766-0.83594 2.3359-0.83594 0.85156-2.2891 0.85156t-2.2969-0.85156q-0.83594-0.85938-0.83594-2.3359 0-1.4688 0.83594-2.3125 0.84375-0.85156 2.2969-0.85156zm-7.1641 6.3516h-1.7266l7.2891-12.102h1.7344zm-1.6016-12.102q1.4531 0 2.2812 0.85156 0.83594 0.84375 0.83594 2.3203 0 1.4766-0.83594 2.3281-0.82812 0.85156-2.2812 0.85156t-2.2891-0.85156q-0.82812-0.85156-0.82812-2.3281 0-1.4766 0.82812-2.3203 0.83594-0.85156 2.2891-0.85156zm0 1.3125q-0.5625 0-0.86719 0.48438t-0.30469 1.375q0 0.89844 0.30469 1.3906 0.30469 0.48438 0.86719 0.48438t0.85938-0.48438q0.30469-0.49219 0.30469-1.3906 0-0.89062-0.30469-1.375t-0.85938-0.48438z"/>
  </g>
 </g>
</svg>
