<svg width="53.667" height="53.667" version="1.1" viewBox="0 0 53.667 53.667" xmlns="http://www.w3.org/2000/svg">
  <path d="m31.654 0a22 22 0 0 0-18.533 33.877l-12.66 12.658a1.572 1.572 0 0 0 0 2.2246l4.4473 4.4453a1.572 1.572 0 0 0 2.2227 0l12.662-12.66a22.009 22.009 0 1 0 11.861-40.545zm-0.78125 3.1621a18.867 18.867 0 0 1 19.65 18.85 18.888 18.888 0 0 1-18.869 18.867 18.867 18.867 0 0 1-0.78125-37.717zm0.78125 3.127a15.723 15.723 0 1 0 15.725 15.723 15.74 15.74 0 0 0-15.725-15.723zm-0.52344 3.1543a12.578 12.578 0 0 1 13.102 12.568 12.592 12.592 0 0 1-12.578 12.578 12.578 12.578 0 0 1-0.52344-25.146zm6.7734 7.8457a1.572 1.572 0 0 0-1.0723 0.47266v-0.00586l-6.75 6.75-3.6055-3.6016a1.572 1.572 0 0 0-2.2227 2.2246l4.7168 4.7168a1.572 1.572 0 0 0 2.2227 0l7.8613-7.8613a1.572 1.572 0 0 0-1.1504-2.6953zm-22.879 19.129a22.172 22.172 0 0 0 2.2227 2.2227l-2.2363 2.2383-2.2246-2.2227 2.2383-2.2383zm-4.457 4.4609 2.2188 2.2207-6.7676 6.7715-2.2188-2.2227 6.7676-6.7695z" fill="#d9d9d9"/>
</svg>
